module gitlab.com/proggcreator/rest_api_project

go 1.13

require (
	github.com/BurntSushi/toml v0.3.1
	github.com/gorilla/mux v1.8.0
	github.com/lib/pq v1.10.2
	github.com/sirupsen/logrus v1.8.1
	github.com/stretchr/testify v1.7.0
)
